Added Component: Designator=R63(1608_[0603] Resistor)
Added Component: Designator=R64(1608_[0603] Resistor)
Added Component: Designator=U8(mcp6022)
Added Pin To Net: NetName=+3.3 Pin=R63-2
Added Pin To Net: NetName=GND Pin=R64-1
Added Pin To Net: NetName=+1.5 Pin=U8-1
Added Pin To Net: NetName=+1.5 Pin=U8-2
Added Pin To Net: NetName=NetR63_1 Pin=R63-1
Added Pin To Net: NetName=NetR63_1 Pin=R64-2
Added Pin To Net: NetName=NetR63_1 Pin=U8-3
Added Net: Name=NetR63_1
Added Member To Class: ClassName=8Ain Member=Component R63 ERA6Y
Added Member To Class: ClassName=8Ain Member=Component R64 ERA6Y
Added Member To Class: ClassName=8Ain Member=Component U8 MCP6022
