Removed Pin From Net: NetName=GND Pin=R19-1
Removed Pin From Net: NetName=NetR12_1 Pin=R19-2
Added Component: Designator=R20(1608_[0603] Resistor)
Added Pin To Net: NetName=NetR12_1 Pin=R19-1
Added Pin To Net: NetName=NetR19_2 Pin=R19-2
Added Pin To Net: NetName=GND Pin=R19-1
Added Pin To Net: NetName=NetR12_1 Pin=R19-2
Added Member To Class: ClassName=mcu Member=Component R20 ERA6Y
