Added Component: Designator=C1(1608_[0603] Capacitor)
Added Component: Designator=C2(1608_[0603] Capacitor)
Added Component: Designator=C3(1608_[0603] Capacitor)
Added Component: Designator=C4(1608_[0603] Capacitor)
Added Component: Designator=C5(1608_[0603] Capacitor)
Added Component: Designator=C30(1608_[0603] Capacitor)
Added Component: Designator=DS1(1608_[0603] LED)
Added Component: Designator=P1(HDR1X8)
Added Component: Designator=P2(HDR1X8)
Added Component: Designator=R1(1608_[0603] Resistor)
Added Component: Designator=R2(1608_[0603] Resistor)
Added Component: Designator=R3(1608_[0603] Resistor)
Added Component: Designator=R4(1608_[0603] Resistor)
Added Component: Designator=R5(1608_[0603] Resistor)
Added Component: Designator=R6(1608_[0603] Resistor)
Added Component: Designator=R7(1608_[0603] Resistor)
Added Component: Designator=R8(1608_[0603] Resistor)
Added Component: Designator=R9(1608_[0603] Resistor)
Added Component: Designator=R10(1608_[0603] Resistor)
Added Component: Designator=R11(1608_[0603] Resistor)
Added Component: Designator=R12(1608_[0603] Resistor)
Added Component: Designator=R13(1608_[0603] Resistor)
Added Component: Designator=R14(1608_[0603] Resistor)
Added Component: Designator=R15(1608_[0603] Resistor)
Added Component: Designator=R16(1608_[0603] Resistor)
Added Component: Designator=R17(1608_[0603] Resistor)
Added Component: Designator=R18(1608_[0603] Resistor)
Added Component: Designator=R19(1608_[0603] Resistor)
Added Component: Designator=R20(1608_[0603] Resistor)
Added Component: Designator=R21(1608_[0603] Resistor)
Added Component: Designator=R22(1608_[0603] Resistor)
Added Component: Designator=R23(1608_[0603] Resistor)
Added Component: Designator=R24(1608_[0603] Resistor)
Added Component: Designator=R25(1608_[0603] Resistor)
Added Component: Designator=R26(1608_[0603] Resistor)
Added Component: Designator=R27(1608_[0603] Resistor)
Added Component: Designator=R28(1608_[0603] Resistor)
Added Component: Designator=R29(1608_[0603] Resistor)
Added Component: Designator=R30(1608_[0603] Resistor)
Added Component: Designator=R31(1608_[0603] Resistor)
Added Component: Designator=R32(1608_[0603] Resistor)
Added Component: Designator=R33(1608_[0603] Resistor)
Added Component: Designator=R34(1608_[0603] Resistor)
Added Component: Designator=R35(1608_[0603] Resistor)
Added Component: Designator=R36(1608_[0603] Resistor)
Added Component: Designator=R37(1608_[0603] Resistor)
Added Component: Designator=R38(1608_[0603] Resistor)
Added Component: Designator=R39(1608_[0603] Resistor)
Added Component: Designator=R40(1608_[0603] Resistor)
Added Component: Designator=R41(1608_[0603] Resistor)
Added Component: Designator=R42(1608_[0603] Resistor)
Added Component: Designator=R43(1608_[0603] Resistor)
Added Component: Designator=R44(1608_[0603] Resistor)
Added Component: Designator=R45(1608_[0603] Resistor)
Added Component: Designator=R46(1608_[0603] Resistor)
Added Component: Designator=R47(1608_[0603] Resistor)
Added Component: Designator=R48(1608_[0603] Resistor)
Added Component: Designator=R49(1608_[0603] Resistor)
Added Component: Designator=R50(1608_[0603] Resistor)
Added Component: Designator=R51(1608_[0603] Resistor)
Added Component: Designator=U4(SOT95P280X110-6N)
Added Pin To Net: NetName=NetC1_1 Pin=C1-1
Added Pin To Net: NetName=GND Pin=C1-2
Added Pin To Net: NetName=GND Pin=C2-1
Added Pin To Net: NetName=+3.3 Pin=C2-2
Added Pin To Net: NetName=GND Pin=C3-1
Added Pin To Net: NetName=+3.3 Pin=C3-2
Added Pin To Net: NetName=GND Pin=C4-1
Added Pin To Net: NetName=+3.3 Pin=C4-2
Added Pin To Net: NetName=GND Pin=C5-1
Added Pin To Net: NetName=NetC5_2 Pin=C5-2
Added Pin To Net: NetName=NetC5_2 Pin=C30-1
Added Pin To Net: NetName=NetC1_1 Pin=C30-2
Added Pin To Net: NetName=NetDS1_1 Pin=DS1-1
Added Pin To Net: NetName=GND Pin=DS1-2
Added Pin To Net: NetName=+5 Pin=P1-1
Added Pin To Net: NetName=+3.3 Pin=P1-2
Added Pin To Net: NetName=+24 Pin=P1-3
Added Pin To Net: NetName=+24 Pin=P1-4
Added Pin To Net: NetName=COM Pin=P1-5
Added Pin To Net: NetName=COM Pin=P1-6
Added Pin To Net: NetName=NetP1_7 Pin=P1-7
Added Pin To Net: NetName=NetP1_19 Pin=P1-8
Added Pin To Net: NetName=NetR34_2 Pin=P2-1
Added Pin To Net: NetName=NetR35_2 Pin=P2-2
Added Pin To Net: NetName=NetP1_3 Pin=P2-3
Added Pin To Net: NetName=NetR26_2 Pin=P2-4
Added Pin To Net: NetName=NetR25_2 Pin=P2-5
Added Pin To Net: NetName=NetR24_2 Pin=P2-6
Added Pin To Net: NetName=GND Pin=P2-7
Added Pin To Net: NetName=GND Pin=P2-8
Added Pin To Net: NetName=NetC1_1 Pin=R1-1
Added Pin To Net: NetName=NetR1_2 Pin=R1-2
Added Pin To Net: NetName=NetC5_2 Pin=R2-1
Added Pin To Net: NetName=NetR36_2 Pin=R2-2
Added Pin To Net: NetName=NetR28_2 Pin=R3-1
Added Pin To Net: NetName=NetP3_1 Pin=R3-2
Added Pin To Net: NetName=NetR29_2 Pin=R4-1
Added Pin To Net: NetName=NetP3_2 Pin=R4-2
Added Pin To Net: NetName=NetP3_3 Pin=R5-1
Added Pin To Net: NetName=NetP3_4 Pin=R5-2
Added Pin To Net: NetName=NetP1_5 Pin=R6-1
Added Pin To Net: NetName=NetP3_1 Pin=R6-2
Added Pin To Net: NetName=NetP4_1 Pin=R7-1
Added Pin To Net: NetName=NetP3_2 Pin=R7-2
Added Pin To Net: NetName=NetP4_2 Pin=R8-1
Added Pin To Net: NetName=NetP3_4 Pin=R8-2
Added Pin To Net: NetName=GND Pin=R9-1
Added Pin To Net: NetName=NetP1_5 Pin=R9-2
Added Pin To Net: NetName=GND Pin=R10-1
Added Pin To Net: NetName=NetP4_1 Pin=R10-2
Added Pin To Net: NetName=GND Pin=R11-1
Added Pin To Net: NetName=NetP4_2 Pin=R11-2
Added Pin To Net: NetName=NetP1_9 Pin=R12-1
Added Pin To Net: NetName=NetP4_3 Pin=R12-2
Added Pin To Net: NetName=NetP4_4 Pin=R13-1
Added Pin To Net: NetName=NetP5_1 Pin=R13-2
Added Pin To Net: NetName=NetP5_2 Pin=R14-1
Added Pin To Net: NetName=NetP5_3 Pin=R14-2
Added Pin To Net: NetName=NetP1_9 Pin=R15-1
Added Pin To Net: NetName=GND Pin=R15-2
Added Pin To Net: NetName=NetP4_4 Pin=R16-1
Added Pin To Net: NetName=GND Pin=R16-2
Added Pin To Net: NetName=NetP5_2 Pin=R17-1
Added Pin To Net: NetName=GND Pin=R17-2
Added Pin To Net: NetName=NetR36_2 Pin=R18-1
Added Pin To Net: NetName=NetP4_3 Pin=R18-2
Added Pin To Net: NetName=NetR36_2 Pin=R19-1
Added Pin To Net: NetName=NetP5_1 Pin=R19-2
Added Pin To Net: NetName=NetR36_2 Pin=R20-1
Added Pin To Net: NetName=NetP5_3 Pin=R20-2
Added Pin To Net: NetName=NetR27_1 Pin=R21-1
Added Pin To Net: NetName=NetP5_4 Pin=R21-2
Added Pin To Net: NetName=NetR22_1 Pin=R22-1
Added Pin To Net: NetName=NetP6_1 Pin=R22-2
Added Pin To Net: NetName=NetP6_2 Pin=R23-1
Added Pin To Net: NetName=NetR23_2 Pin=R23-2
Added Pin To Net: NetName=NetP1_11 Pin=R24-1
Added Pin To Net: NetName=NetP5_4 Pin=R24-2
Added Pin To Net: NetName=NetP6_3 Pin=R25-1
Added Pin To Net: NetName=NetP6_1 Pin=R25-2
Added Pin To Net: NetName=NetP10_1 Pin=R26-1
Added Pin To Net: NetName=NetR23_2 Pin=R26-2
Added Pin To Net: NetName=GND Pin=R27-1
Added Pin To Net: NetName=NetP1_11 Pin=R27-2
Added Pin To Net: NetName=GND Pin=R28-1
Added Pin To Net: NetName=NetP6_3 Pin=R28-2
Added Pin To Net: NetName=GND Pin=R29-1
Added Pin To Net: NetName=NetP10_1 Pin=R29-2
Added Pin To Net: NetName=NetP1_13 Pin=R30-1
Added Pin To Net: NetName=NetP6_4 Pin=R30-2
Added Pin To Net: NetName=NetP11_1 Pin=R31-1
Added Pin To Net: NetName=NetP11_2 Pin=R31-2
Added Pin To Net: NetName=NetP10_2 Pin=R32-1
Added Pin To Net: NetName=NetP11_3 Pin=R32-2
Added Pin To Net: NetName=NetP1_13 Pin=R33-1
Added Pin To Net: NetName=GND Pin=R33-2
Added Pin To Net: NetName=NetP11_1 Pin=R34-1
Added Pin To Net: NetName=GND Pin=R34-2
Added Pin To Net: NetName=NetP10_2 Pin=R35-1
Added Pin To Net: NetName=GND Pin=R35-2
Added Pin To Net: NetName=NetR36_2 Pin=R36-1
Added Pin To Net: NetName=NetP6_4 Pin=R36-2
Added Pin To Net: NetName=NetR36_2 Pin=R37-1
Added Pin To Net: NetName=NetP11_2 Pin=R37-2
Added Pin To Net: NetName=NetR36_2 Pin=R38-1
Added Pin To Net: NetName=NetP11_3 Pin=R38-2
Added Pin To Net: NetName=NetP11_4 Pin=R39-1
Added Pin To Net: NetName=NetR39_2 Pin=R39-2
Added Pin To Net: NetName=NetR2_2 Pin=R40-1
Added Pin To Net: NetName=NetR40_2 Pin=R40-2
Added Pin To Net: NetName=NetP10_3 Pin=R41-1
Added Pin To Net: NetName=NetR39_2 Pin=R41-2
Added Pin To Net: NetName=NetP1_15 Pin=R42-1
Added Pin To Net: NetName=NetR40_2 Pin=R42-2
Added Pin To Net: NetName=GND Pin=R43-1
Added Pin To Net: NetName=NetP10_3 Pin=R43-2
Added Pin To Net: NetName=GND Pin=R44-1
Added Pin To Net: NetName=NetP1_15 Pin=R44-2
Added Pin To Net: NetName=NetP10_4 Pin=R45-1
Added Pin To Net: NetName=NetR45_2 Pin=R45-2
Added Pin To Net: NetName=NetP1_17 Pin=R46-1
Added Pin To Net: NetName=NetR46_2 Pin=R46-2
Added Pin To Net: NetName=NetP10_4 Pin=R47-1
Added Pin To Net: NetName=GND Pin=R47-2
Added Pin To Net: NetName=NetP1_17 Pin=R48-1
Added Pin To Net: NetName=GND Pin=R48-2
Added Pin To Net: NetName=NetR36_2 Pin=R49-1
Added Pin To Net: NetName=NetR45_2 Pin=R49-2
Added Pin To Net: NetName=NetR36_2 Pin=R50-1
Added Pin To Net: NetName=NetR46_2 Pin=R50-2
Added Pin To Net: NetName=+3.3 Pin=R51-1
Added Pin To Net: NetName=NetDS1_1 Pin=R51-2
Added Pin To Net: NetName=NetC1_1 Pin=U4-1
Added Pin To Net: NetName=GND Pin=U4-2
Added Pin To Net: NetName=NetR34_2 Pin=U4-3
Added Pin To Net: NetName=NetR35_2 Pin=U4-4
Added Pin To Net: NetName=+3.3 Pin=U4-5
Added Pin To Net: NetName=NetC5_2 Pin=U4-6
Change Net Name : Old Net Name=NetP1_1 New Net Name=NetF1_1
Change Net Name : Old Net Name=NetP1_3 New Net Name=NetP2_3
Change Net Name : Old Net Name=NetP1_5 New Net Name=NetP9_1
Change Net Name : Old Net Name=NetP1_9 New Net Name=NetP9_2
Change Net Name : Old Net Name=NetP1_11 New Net Name=NetP9_7
Change Net Name : Old Net Name=NetP1_13 New Net Name=NetP9_8
Change Net Name : Old Net Name=NetP1_15 New Net Name=NetP10_5
Change Net Name : Old Net Name=NetP1_17 New Net Name=NetP10_6
Change Net Name : Old Net Name=NetP1_19 New Net Name=NetP1_8
Change Net Name : Old Net Name=NetP3_1 New Net Name=NetR3_2
Change Net Name : Old Net Name=NetP3_2 New Net Name=NetR4_2
Change Net Name : Old Net Name=NetP3_3 New Net Name=NetR5_1
Change Net Name : Old Net Name=NetP3_4 New Net Name=NetR5_2
Change Net Name : Old Net Name=NetP4_1 New Net Name=NetP9_3
Change Net Name : Old Net Name=NetP4_2 New Net Name=NetP9_5
Change Net Name : Old Net Name=NetP4_3 New Net Name=NetR12_2
Change Net Name : Old Net Name=NetP4_4 New Net Name=NetP9_4
Change Net Name : Old Net Name=NetP5_1 New Net Name=NetR13_2
Change Net Name : Old Net Name=NetP5_2 New Net Name=NetP9_6
Change Net Name : Old Net Name=NetP5_3 New Net Name=NetR14_2
Change Net Name : Old Net Name=NetP5_4 New Net Name=NetR21_2
Change Net Name : Old Net Name=NetP6_1 New Net Name=NetR22_2
Change Net Name : Old Net Name=NetP6_2 New Net Name=NetR23_1
Change Net Name : Old Net Name=NetP6_3 New Net Name=NetP9_9
Change Net Name : Old Net Name=NetP6_4 New Net Name=NetR30_2
Change Net Name : Old Net Name=NetP11_1 New Net Name=NetP9_10
Change Net Name : Old Net Name=NetP11_2 New Net Name=NetR31_2
Change Net Name : Old Net Name=NetP11_3 New Net Name=NetR32_2
Change Net Name : Old Net Name=NetP11_4 New Net Name=NetR39_1
Change Net Name : Old Net Name=NetR2_2 New Net Name=NetR40_1
Change Net Name : Old Net Name=NetR24_2 New Net Name=NetP2_6
Change Net Name : Old Net Name=NetR25_2 New Net Name=NetP2_5
Change Net Name : Old Net Name=NetR26_2 New Net Name=NetP2_4
Change Net Name : Old Net Name=NetR27_1 New Net Name=NetR21_1
Change Net Name : Old Net Name=NetR28_2 New Net Name=NetR3_1
Change Net Name : Old Net Name=NetR29_2 New Net Name=NetR4_1
Change Net Name : Old Net Name=NetR34_2 New Net Name=NetP2_1
Change Net Name : Old Net Name=NetR35_2 New Net Name=NetP2_2
Change Net Name : Old Net Name=NetR36_2 New Net Name=+1.5
Added Member To Class: ClassName=8Ain Member=Component C1 C0805
Added Member To Class: ClassName=8Ain Member=Component C2 C0805
Added Member To Class: ClassName=8Ain Member=Component C3 C0805
Added Member To Class: ClassName=8Ain Member=Component C4 C0805
Added Member To Class: ClassName=8Ain Member=Component C5 C0805
Added Member To Class: ClassName=8Ain Member=Component C30 C0805
Added Member To Class: ClassName=8Ain Member=Component DS1 LED2
Added Member To Class: ClassName=8Ain Member=Component P1 Header 8
Added Member To Class: ClassName=8Ain Member=Component P2 Header 8
Added Member To Class: ClassName=8Ain Member=Component R1 ERA6Y
Added Member To Class: ClassName=8Ain Member=Component R2 ERA6Y
Added Member To Class: ClassName=8Ain Member=Component R3 ERA6Y
Added Member To Class: ClassName=8Ain Member=Component R4 ERA6Y
Added Member To Class: ClassName=8Ain Member=Component R5 ERA6Y
Added Member To Class: ClassName=8Ain Member=Component R6 ERA6Y
Added Member To Class: ClassName=8Ain Member=Component R7 ERA6Y
Added Member To Class: ClassName=8Ain Member=Component R8 ERA6Y
Added Member To Class: ClassName=8Ain Member=Component R9 ERA6Y
Added Member To Class: ClassName=8Ain Member=Component R10 ERA6Y
Added Member To Class: ClassName=8Ain Member=Component R11 ERA6Y
Added Member To Class: ClassName=8Ain Member=Component R12 ERA6Y
Added Member To Class: ClassName=8Ain Member=Component R13 ERA6Y
Added Member To Class: ClassName=8Ain Member=Component R14 ERA6Y
Added Member To Class: ClassName=8Ain Member=Component R15 ERA6Y
Added Member To Class: ClassName=8Ain Member=Component R16 ERA6Y
Added Member To Class: ClassName=8Ain Member=Component R17 ERA6Y
Added Member To Class: ClassName=8Ain Member=Component R18 ERA6Y
Added Member To Class: ClassName=8Ain Member=Component R19 ERA6Y
Added Member To Class: ClassName=8Ain Member=Component R20 ERA6Y
Added Member To Class: ClassName=8Ain Member=Component R21 ERA6Y
Added Member To Class: ClassName=8Ain Member=Component R22 ERA6Y
Added Member To Class: ClassName=8Ain Member=Component R23 ERA6Y
Added Member To Class: ClassName=8Ain Member=Component R24 ERA6Y
Added Member To Class: ClassName=8Ain Member=Component R25 ERA6Y
Added Member To Class: ClassName=8Ain Member=Component R26 ERA6Y
Added Member To Class: ClassName=8Ain Member=Component R27 ERA6Y
Added Member To Class: ClassName=8Ain Member=Component R28 ERA6Y
Added Member To Class: ClassName=8Ain Member=Component R29 ERA6Y
Added Member To Class: ClassName=8Ain Member=Component R30 ERA6Y
Added Member To Class: ClassName=8Ain Member=Component R31 ERA6Y
Added Member To Class: ClassName=8Ain Member=Component R32 ERA6Y
Added Member To Class: ClassName=8Ain Member=Component R33 ERA6Y
Added Member To Class: ClassName=8Ain Member=Component R34 ERA6Y
Added Member To Class: ClassName=8Ain Member=Component R35 ERA6Y
Added Member To Class: ClassName=8Ain Member=Component R36 ERA6Y
Added Member To Class: ClassName=8Ain Member=Component R37 ERA6Y
Added Member To Class: ClassName=8Ain Member=Component R38 ERA6Y
Added Member To Class: ClassName=8Ain Member=Component R39 ERA6Y
Added Member To Class: ClassName=8Ain Member=Component R40 ERA6Y
Added Member To Class: ClassName=8Ain Member=Component R41 ERA6Y
Added Member To Class: ClassName=8Ain Member=Component R42 ERA6Y
Added Member To Class: ClassName=8Ain Member=Component R43 ERA6Y
Added Member To Class: ClassName=8Ain Member=Component R44 ERA6Y
Added Member To Class: ClassName=8Ain Member=Component R45 ERA6Y
Added Member To Class: ClassName=8Ain Member=Component R46 ERA6Y
Added Member To Class: ClassName=8Ain Member=Component R47 ERA6Y
Added Member To Class: ClassName=8Ain Member=Component R48 ERA6Y
Added Member To Class: ClassName=8Ain Member=Component R49 ERA6Y
Added Member To Class: ClassName=8Ain Member=Component R50 ERA6Y
Added Member To Class: ClassName=8Ain Member=Component R51 ERA6Y
Added Member To Class: ClassName=8Ain Member=Component U4 ads1110
