Added Component: Designator=*1(SOIC127P600X265-16N)
Added Component: Designator=C1(1608_[0603] Capacitor)
Added Component: Designator=C2(1608_[0603] Capacitor)
Added Component: Designator=C3(1608_[0603] Capacitor)
Added Component: Designator=C4(1608_[0603] Capacitor)
Added Component: Designator=C5(1608_[0603] Capacitor)
Added Component: Designator=C6(1608_[0603] Capacitor)
Added Component: Designator=C7(1608_[0603] Capacitor)
Added Component: Designator=C8(1608_[0603] Capacitor)
Added Component: Designator=C9(1608_[0603] Capacitor)
Added Component: Designator=C10(1608_[0603] Capacitor)
Added Component: Designator=C11(1608_[0603] Capacitor)
Added Component: Designator=C12(1608_[0603] Capacitor)
Added Component: Designator=C13(1608_[0603] Capacitor)
Added Component: Designator=C14(1608_[0603] Capacitor)
Added Component: Designator=C15(1608_[0603] Capacitor)
Added Component: Designator=C16(1608_[0603] Capacitor)
Added Component: Designator=C17(1608_[0603] Capacitor)
Added Component: Designator=C18(1608_[0603] Capacitor)
Added Component: Designator=C19(1608_[0603] Capacitor)
Added Component: Designator=C20(1608_[0603] Capacitor)
Added Component: Designator=C21(1608_[0603] Capacitor)
Added Component: Designator=C22(1608_[0603] Capacitor)
Added Component: Designator=C23(1608_[0603] Capacitor)
Added Component: Designator=C24(1608_[0603] Capacitor)
Added Component: Designator=C25(1608_[0603] Capacitor)
Added Component: Designator=P1(HDR1X2)
Added Component: Designator=P2(HDR2X5)
Added Component: Designator=R1(1608_[0603] Resistor)
Added Component: Designator=R2(1608_[0603] Resistor)
Added Component: Designator=R3(1608_[0603] Resistor)
Added Component: Designator=R4(1608_[0603] Resistor)
Added Component: Designator=R5(1608_[0603] Resistor)
Added Component: Designator=R6(1608_[0603] Resistor)
Added Component: Designator=R7(1608_[0603] Resistor)
Added Component: Designator=R8(1608_[0603] Resistor)
Added Component: Designator=R9(1608_[0603] Resistor)
Added Component: Designator=R10(1608_[0603] Resistor)
Added Component: Designator=R11(1608_[0603] Resistor)
Added Component: Designator=R12(1608_[0603] Resistor)
Added Component: Designator=R13(1608_[0603] Resistor)
Added Component: Designator=R14(1608_[0603] Resistor)
Added Component: Designator=R15(1608_[0603] Resistor)
Added Component: Designator=R16(1608_[0603] Resistor)
Added Component: Designator=R17(1608_[0603] Resistor)
Added Component: Designator=R18(1608_[0603] Resistor)
Added Component: Designator=R19(1608_[0603] Resistor)
Added Component: Designator=S1(DPST-4 s)
Added Component: Designator=S2(DPST-4 s)
Added Component: Designator=S3(N10A)
Added Component: Designator=S4(DPST-4 s)
Added Component: Designator=S5(DPST-4 s)
Added Component: Designator=S6(DPST-4 s)
Added Component: Designator=U1(LM358Diff)
Added Component: Designator=U2(D016_N)
Added Component: Designator=U3(LM358Diff)
Added Component: Designator=U4(SOT95P280X110-6N)
Added Component: Designator=U5(LM358Diff)
Added Component: Designator=U6(LM358Diff)
Added Component: Designator=U7(WRB2405S-3WR2)
Added Component: Designator=U8(PPAK)
Added Component: Designator=U9(SOT95P280X110-5N)
Added Component: Designator=U10(TD301D485H)
Added Component: Designator=U11(32A_N)
Added Pin To Net: NetName=+3.3 Pin=*1-1
Added Pin To Net: NetName=GND Pin=*1-2
Added Pin To Net: NetName=+5_485 Pin=*1-13
Added Pin To Net: NetName=GND_485 Pin=*1-15
Added Pin To Net: NetName=+5_485 Pin=*1-16
Added Pin To Net: NetName=GND Pin=C1-1
Added Pin To Net: NetName=NetC1_2 Pin=C1-2
Added Pin To Net: NetName=GND Pin=C2-1
Added Pin To Net: NetName=+3.3 Pin=C2-2
Added Pin To Net: NetName=GND Pin=C3-1
Added Pin To Net: NetName=+3.3 Pin=C3-2
Added Pin To Net: NetName=GND Pin=C4-1
Added Pin To Net: NetName=+3.3 Pin=C4-2
Added Pin To Net: NetName=GND Pin=C5-1
Added Pin To Net: NetName=COM Pin=C6-1
Added Pin To Net: NetName=+24 Pin=C6-2
Added Pin To Net: NetName=COM Pin=C7-1
Added Pin To Net: NetName=+24 Pin=C7-2
Added Pin To Net: NetName=GND Pin=C8-1
Added Pin To Net: NetName=+5 Pin=C8-2
Added Pin To Net: NetName=GND Pin=C9-1
Added Pin To Net: NetName=+5 Pin=C9-2
Added Pin To Net: NetName=GND Pin=C10-1
Added Pin To Net: NetName=+3.3 Pin=C10-2
Added Pin To Net: NetName=GND Pin=C11-1
Added Pin To Net: NetName=+3.3 Pin=C11-2
Added Pin To Net: NetName=GND Pin=C12-1
Added Pin To Net: NetName=+5 Pin=C12-2
Added Pin To Net: NetName=GND Pin=C13-1
Added Pin To Net: NetName=+5 Pin=C13-2
Added Pin To Net: NetName=GND Pin=C14-1
Added Pin To Net: NetName=GND Pin=C15-1
Added Pin To Net: NetName=GND Pin=C16-1
Added Pin To Net: NetName=GND Pin=C17-1
Added Pin To Net: NetName=+5 Pin=C17-2
Added Pin To Net: NetName=GND_485 Pin=C18-1
Added Pin To Net: NetName=+5 Pin=C18-2
Added Pin To Net: NetName=GND_485 Pin=C19-1
Added Pin To Net: NetName=+5 Pin=C19-2
Added Pin To Net: NetName=GND Pin=C20-1
Added Pin To Net: NetName=+3.3 Pin=C20-2
Added Pin To Net: NetName=GND_485 Pin=C21-1
Added Pin To Net: NetName=+5_485 Pin=C21-2
Added Pin To Net: NetName=GND_485 Pin=C22-1
Added Pin To Net: NetName=+5_485 Pin=C22-2
Added Pin To Net: NetName=GND Pin=C23-1
Added Pin To Net: NetName=+3.3 Pin=C23-2
Added Pin To Net: NetName=GND Pin=C24-1
Added Pin To Net: NetName=+3.3 Pin=C24-2
Added Pin To Net: NetName=GND Pin=C25-1
Added Pin To Net: NetName=+3.3 Pin=C25-2
Added Pin To Net: NetName=+24 Pin=P1-1
Added Pin To Net: NetName=COM Pin=P1-2
Added Pin To Net: NetName=+24 Pin=P2-1
Added Pin To Net: NetName=COM Pin=P2-2
Added Pin To Net: NetName=+24 Pin=P2-3
Added Pin To Net: NetName=COM Pin=P2-4
Added Pin To Net: NetName=+24 Pin=P2-5
Added Pin To Net: NetName=COM Pin=P2-6
Added Pin To Net: NetName=+24 Pin=P2-7
Added Pin To Net: NetName=COM Pin=P2-8
Added Pin To Net: NetName=NetC1_2 Pin=R1-1
Added Pin To Net: NetName=+5_485 Pin=R4-1
Added Pin To Net: NetName=GND_485 Pin=R6-2
Added Pin To Net: NetName=+3.3 Pin=R7-1
Added Pin To Net: NetName=+3.3 Pin=R8-1
Added Pin To Net: NetName=+3.3 Pin=R9-2
Added Pin To Net: NetName=+3.3 Pin=R10-2
Added Pin To Net: NetName=NetR13_1 Pin=R13-1
Added Pin To Net: NetName=+3.3 Pin=R15-2
Added Pin To Net: NetName=NetR13_1 Pin=R16-2
Added Pin To Net: NetName=GND Pin=S1-1
Added Pin To Net: NetName=GND Pin=S2-1
Added Pin To Net: NetName=GND Pin=S3-1
Added Pin To Net: NetName=GND Pin=S3-2
Added Pin To Net: NetName=GND Pin=S3-3
Added Pin To Net: NetName=GND Pin=S3-4
Added Pin To Net: NetName=GND Pin=S3-5
Added Pin To Net: NetName=NetR13_1 Pin=S3-8
Added Pin To Net: NetName=GND Pin=S4-1
Added Pin To Net: NetName=GND Pin=S5-1
Added Pin To Net: NetName=GND Pin=S6-1
Added Pin To Net: NetName=NetU1_1 Pin=U1-1
Added Pin To Net: NetName=NetU1_2 Pin=U1-2
Added Pin To Net: NetName=NetU1_4 Pin=U1-4
Added Pin To Net: NetName=NetU1_5 Pin=U1-5
Added Pin To Net: NetName=+5 Pin=U1-7
Added Pin To Net: NetName=GND Pin=U1-8
Added Pin To Net: NetName=NetU2_1 Pin=U2-1
Added Pin To Net: NetName=NetU2_2 Pin=U2-2
Added Pin To Net: NetName=NetU2_4 Pin=U2-4
Added Pin To Net: NetName=GND Pin=U2-6
Added Pin To Net: NetName=GND Pin=U2-7
Added Pin To Net: NetName=GND Pin=U2-8
Added Pin To Net: NetName=NetU1_5 Pin=U2-13
Added Pin To Net: NetName=+3.3 Pin=U2-16
Added Pin To Net: NetName=NetU3_1 Pin=U3-1
Added Pin To Net: NetName=NetU3_2 Pin=U3-2
Added Pin To Net: NetName=NetU3_3 Pin=U3-3
Added Pin To Net: NetName=NetU3_4 Pin=U3-4
Added Pin To Net: NetName=+5 Pin=U3-7
Added Pin To Net: NetName=GND Pin=U3-8
Added Pin To Net: NetName=NetC1_2 Pin=U4-1
Added Pin To Net: NetName=GND Pin=U4-2
Added Pin To Net: NetName=+3.3 Pin=U4-5
Added Pin To Net: NetName=NetU5_1 Pin=U5-1
Added Pin To Net: NetName=NetU5_2 Pin=U5-2
Added Pin To Net: NetName=NetU5_3 Pin=U5-3
Added Pin To Net: NetName=NetU5_4 Pin=U5-4
Added Pin To Net: NetName=NetU2_1 Pin=U5-5
Added Pin To Net: NetName=+5 Pin=U5-7
Added Pin To Net: NetName=GND Pin=U5-8
Added Pin To Net: NetName=NetU2_2 Pin=U6-5
Added Pin To Net: NetName=NetU2_4 Pin=U6-6
Added Pin To Net: NetName=+5 Pin=U6-7
Added Pin To Net: NetName=GND Pin=U6-8
Added Pin To Net: NetName=COM Pin=U7-1
Added Pin To Net: NetName=+24 Pin=U7-2
Added Pin To Net: NetName=+5 Pin=U7-6
Added Pin To Net: NetName=GND Pin=U7-7
Added Pin To Net: NetName=GND Pin=U8-1
Added Pin To Net: NetName=+5 Pin=U8-2
Added Pin To Net: NetName=+3.3 Pin=U8-4
Added Pin To Net: NetName=GND Pin=U8-6
Added Pin To Net: NetName=+5 Pin=U9-1
Added Pin To Net: NetName=GND Pin=U9-2
Added Pin To Net: NetName=+5 Pin=U10-1
Added Pin To Net: NetName=GND_485 Pin=U10-2
Added Pin To Net: NetName=GND Pin=U11-3
Added Pin To Net: NetName=+3.3 Pin=U11-4
Added Pin To Net: NetName=GND Pin=U11-5
Added Pin To Net: NetName=+3.3 Pin=U11-6
Added Pin To Net: NetName=+3.3 Pin=U11-18
Added Pin To Net: NetName=+3.3 Pin=U11-20
Added Pin To Net: NetName=GND Pin=U11-21
Added Pin To Net: NetName=+1.5 Pin=C14-2
Added Pin To Net: NetName=+1.5 Pin=C15-2
Added Pin To Net: NetName=+1.5 Pin=R2-2
Added Pin To Net: NetName=+1.5 Pin=U1-9
Added Pin To Net: NetName=+1.5 Pin=U3-9
Added Pin To Net: NetName=+1.5 Pin=U5-9
Added Pin To Net: NetName=+1.5 Pin=U6-9
Added Pin To Net: NetName=+1.5 Pin=U9-5
Added Net: Name=+1.5
Added Pin To Net: NetName=Net*1_3 Pin=*1-3
Added Pin To Net: NetName=Net*1_3 Pin=U10-4
Added Net: Name=Net*1_3
Added Pin To Net: NetName=Net*1_4 Pin=*1-4
Added Pin To Net: NetName=Net*1_4 Pin=*1-6
Added Pin To Net: NetName=Net*1_4 Pin=U10-5
Added Net: Name=Net*1_4
Added Pin To Net: NetName=Net*1_5 Pin=*1-5
Added Pin To Net: NetName=Net*1_5 Pin=U10-3
Added Net: Name=Net*1_5
Added Pin To Net: NetName=Net*1_10 Pin=*1-10
Added Pin To Net: NetName=Net*1_10 Pin=*1-14
Added Net: Name=Net*1_10
Added Pin To Net: NetName=Net*1_11 Pin=*1-11
Added Pin To Net: NetName=Net*1_11 Pin=P2-9
Added Pin To Net: NetName=Net*1_11 Pin=R3-2
Added Pin To Net: NetName=Net*1_11 Pin=R4-2
Added Pin To Net: NetName=Net*1_11 Pin=R5-2
Added Pin To Net: NetName=Net*1_11 Pin=U10-9
Added Net: Name=Net*1_11
Added Pin To Net: NetName=Net*1_12 Pin=*1-12
Added Pin To Net: NetName=Net*1_12 Pin=P2-10
Added Pin To Net: NetName=Net*1_12 Pin=R3-1
Added Pin To Net: NetName=Net*1_12 Pin=R5-1
Added Pin To Net: NetName=Net*1_12 Pin=R6-1
Added Pin To Net: NetName=Net*1_12 Pin=U10-8
Added Net: Name=Net*1_12
Added Pin To Net: NetName=NetC5_2 Pin=C5-2
Added Pin To Net: NetName=NetC5_2 Pin=R2-1
Added Pin To Net: NetName=NetC5_2 Pin=U4-6
Added Net: Name=NetC5_2
Added Pin To Net: NetName=NetC16_2 Pin=C16-2
Added Pin To Net: NetName=NetC16_2 Pin=U7-8
Added Net: Name=NetC16_2
Added Pin To Net: NetName=NetR1_2 Pin=R1-2
Added Pin To Net: NetName=NetR1_2 Pin=U2-3
Added Net: Name=NetR1_2
Added Pin To Net: NetName=NetR7_2 Pin=R7-2
Added Pin To Net: NetName=NetR7_2 Pin=U11-27
Added Net: Name=NetR7_2
Added Pin To Net: NetName=NetR8_2 Pin=R8-2
Added Pin To Net: NetName=NetR8_2 Pin=U11-28
Added Net: Name=NetR8_2
Added Pin To Net: NetName=NetR9_1 Pin=R9-1
Added Pin To Net: NetName=NetR9_1 Pin=R11-2
Added Pin To Net: NetName=NetR9_1 Pin=S3-10
Added Pin To Net: NetName=NetR9_1 Pin=U11-22
Added Net: Name=NetR9_1
Added Pin To Net: NetName=NetR10_1 Pin=R10-1
Added Pin To Net: NetName=NetR10_1 Pin=R12-2
Added Pin To Net: NetName=NetR10_1 Pin=S1-3
Added Pin To Net: NetName=NetR10_1 Pin=U11-19
Added Net: Name=NetR10_1
Added Pin To Net: NetName=NetR11_1 Pin=R11-1
Added Pin To Net: NetName=NetR11_1 Pin=R13-2
Added Pin To Net: NetName=NetR11_1 Pin=S3-9
Added Net: Name=NetR11_1
Added Pin To Net: NetName=NetR12_1 Pin=R12-1
Added Pin To Net: NetName=NetR12_1 Pin=R14-2
Added Pin To Net: NetName=NetR12_1 Pin=S2-3
Added Net: Name=NetR12_1
Added Pin To Net: NetName=NetR14_1 Pin=R14-1
Added Pin To Net: NetName=NetR14_1 Pin=R17-2
Added Pin To Net: NetName=NetR14_1 Pin=S4-3
Added Net: Name=NetR14_1
Added Pin To Net: NetName=NetR15_1 Pin=R15-1
Added Pin To Net: NetName=NetR15_1 Pin=U11-29
Added Net: Name=NetR15_1
Added Pin To Net: NetName=NetR16_1 Pin=R16-1
Added Pin To Net: NetName=NetR16_1 Pin=R18-2
Added Pin To Net: NetName=NetR16_1 Pin=S3-7
Added Net: Name=NetR16_1
Added Pin To Net: NetName=NetR17_1 Pin=R17-1
Added Pin To Net: NetName=NetR17_1 Pin=R19-2
Added Pin To Net: NetName=NetR17_1 Pin=S5-3
Added Net: Name=NetR17_1
Added Pin To Net: NetName=NetR18_1 Pin=R18-1
Added Pin To Net: NetName=NetR18_1 Pin=S3-6
Added Net: Name=NetR18_1
Added Pin To Net: NetName=NetR19_1 Pin=R19-1
Added Pin To Net: NetName=NetR19_1 Pin=S6-3
Added Net: Name=NetR19_1
Added Pin To Net: NetName=NetU1_3 Pin=U1-3
Added Net: Name=NetU1_3
Added Pin To Net: NetName=NetU1_6 Pin=U1-6
Added Pin To Net: NetName=NetU1_6 Pin=U2-14
Added Net: Name=NetU1_6
Added Pin To Net: NetName=NetU2_5 Pin=U2-5
Added Pin To Net: NetName=NetU2_5 Pin=U5-6
Added Net: Name=NetU2_5
Added Pin To Net: NetName=NetU2_9 Pin=U2-9
Added Net: Name=NetU2_9
Added Pin To Net: NetName=NetU2_10 Pin=U2-10
Added Net: Name=NetU2_10
Added Pin To Net: NetName=NetU2_11 Pin=U2-11
Added Net: Name=NetU2_11
Added Pin To Net: NetName=NetU2_12 Pin=U2-12
Added Pin To Net: NetName=NetU2_12 Pin=U3-6
Added Net: Name=NetU2_12
Added Pin To Net: NetName=NetU2_15 Pin=U2-15
Added Pin To Net: NetName=NetU2_15 Pin=U3-5
Added Net: Name=NetU2_15
Added Pin To Net: NetName=NetU6_1 Pin=U6-1
Added Net: Name=NetU6_1
Added Pin To Net: NetName=NetU6_2 Pin=U6-2
Added Net: Name=NetU6_2
Added Pin To Net: NetName=NetU6_3 Pin=U6-3
Added Net: Name=NetU6_3
Added Pin To Net: NetName=NetU6_4 Pin=U6-4
Added Net: Name=NetU6_4
Added Pin To Net: NetName=NetU11_15 Pin=U11-15
Added Net: Name=NetU11_15
Added Pin To Net: NetName=NetU11_16 Pin=U11-16
Added Net: Name=NetU11_16
Added Pin To Net: NetName=NetU11_17 Pin=U11-17
Added Net: Name=NetU11_17
Added Pin To Net: NetName=NetU11_30 Pin=U11-30
Added Net: Name=NetU11_30
Added Pin To Net: NetName=NetU11_31 Pin=U11-31
Added Net: Name=NetU11_31
Added Member To Class: ClassName=mcu Member=Component *1 IL 3085-3E
Added Member To Class: ClassName=8Ain Member=Component C1 C0805
Added Member To Class: ClassName=8Ain Member=Component C2 C0805
Added Member To Class: ClassName=8Ain Member=Component C3 C0805
Added Member To Class: ClassName=8Ain Member=Component C4 C0805
Added Member To Class: ClassName=8Ain Member=Component C5 C0805
Added Member To Class: ClassName=mcu Member=Component C6 10uF
Added Member To Class: ClassName=mcu Member=Component C7 1uF
Added Member To Class: ClassName=mcu Member=Component C8 10uF
Added Member To Class: ClassName=mcu Member=Component C9 1uF
Added Member To Class: ClassName=mcu Member=Component C10 10uF
Added Member To Class: ClassName=mcu Member=Component C11 1uF
Added Member To Class: ClassName=mcu Member=Component C12 10uF
Added Member To Class: ClassName=mcu Member=Component C13 1uF
Added Member To Class: ClassName=mcu Member=Component C14 10uF
Added Member To Class: ClassName=mcu Member=Component C15 1uF
Added Member To Class: ClassName=mcu Member=Component C16 10uF
Added Member To Class: ClassName=mcu Member=Component C17 1uF
Added Member To Class: ClassName=mcu Member=Component C18 10uF
Added Member To Class: ClassName=mcu Member=Component C19 10uF
Added Member To Class: ClassName=mcu Member=Component C20 10uF
Added Member To Class: ClassName=mcu Member=Component C21 10uF
Added Member To Class: ClassName=mcu Member=Component C22 10uF
Added Member To Class: ClassName=mcu Member=Component C23 10uF
Added Member To Class: ClassName=mcu Member=Component C24 10uF
Added Member To Class: ClassName=mcu Member=Component C25 10uF
Added Member To Class: ClassName=mcu Member=Component P1 Header 2
Added Member To Class: ClassName=mcu Member=Component P2 Header 5X2
Added Member To Class: ClassName=8Ain Member=Component R1 ERA6Y
Added Member To Class: ClassName=8Ain Member=Component R2 ERA6Y
Added Member To Class: ClassName=mcu Member=Component R3 ERA6Y
Added Member To Class: ClassName=mcu Member=Component R4 ERA6Y
Added Member To Class: ClassName=mcu Member=Component R5 ERA6Y
Added Member To Class: ClassName=mcu Member=Component R6 ERA6Y
Added Member To Class: ClassName=mcu Member=Component R7 ERA6Y
Added Member To Class: ClassName=mcu Member=Component R8 ERA6Y
Added Member To Class: ClassName=mcu Member=Component R9 ERA6Y
Added Member To Class: ClassName=mcu Member=Component R10 ERA6Y
Added Member To Class: ClassName=mcu Member=Component R11 ERA6Y
Added Member To Class: ClassName=mcu Member=Component R12 ERA6Y
Added Member To Class: ClassName=mcu Member=Component R13 ERA6Y
Added Member To Class: ClassName=mcu Member=Component R14 ERA6Y
Added Member To Class: ClassName=mcu Member=Component R15 ERA6Y
Added Member To Class: ClassName=mcu Member=Component R16 ERA6Y
Added Member To Class: ClassName=mcu Member=Component R17 ERA6Y
Added Member To Class: ClassName=mcu Member=Component R18 ERA6Y
Added Member To Class: ClassName=mcu Member=Component R19 ERA6Y
Added Member To Class: ClassName=mcu Member=Component S1 SW-PB
Added Member To Class: ClassName=mcu Member=Component S2 SW-PB
Added Member To Class: ClassName=mcu Member=Component S3 SW DIP-5
Added Member To Class: ClassName=mcu Member=Component S4 SW-PB
Added Member To Class: ClassName=mcu Member=Component S5 SW-PB
Added Member To Class: ClassName=mcu Member=Component S6 SW-PB
Added Member To Class: ClassName=8Ain Member=Component U1 LM358Diff
Added Member To Class: ClassName=8Ain Member=Component U2 74HC4051D,653
Added Member To Class: ClassName=8Ain Member=Component U3 LM358Diff
Added Member To Class: ClassName=8Ain Member=Component U4 ads1110
Added Member To Class: ClassName=8Ain Member=Component U5 LM358Diff
Added Member To Class: ClassName=8Ain Member=Component U6 LM358Diff
Added Member To Class: ClassName=mcu Member=Component U7 WRB2405S-3WR2 /  AM3G-2405S-NZ
Added Member To Class: ClassName=mcu Member=Component U8 BA033CC0WFP-E2
Added Member To Class: ClassName=mcu Member=Component U9 TLV70215DBVR
Added Member To Class: ClassName=mcu Member=Component U10 TD301D485H
Added Member To Class: ClassName=mcu Member=Component U11 ATmega328-AU
Added Room: Name=8Ain
Added Room: Name=mcu
