Removed Pin From Net: NetName=+24 Pin=F1-1
Removed Pin From Net: NetName=NetF1_2 Pin=F1-2
Removed Pin From Net: NetName=NetF1_2 Pin=P9-11
Removed Pin From Net: NetName=+3.3 Pin=R43-1
Removed Pin From Net: NetName=NetDS1_1 Pin=R43-2
Added Component: Designator=C1(1608_[0603] Capacitor)
Added Component: Designator=C2(1608_[0603] Capacitor)
Added Component: Designator=C3(1608_[0603] Capacitor)
Added Component: Designator=C4(1608_[0603] Capacitor)
Added Component: Designator=C5(1608_[0603] Capacitor)
Added Component: Designator=C30(1608_[0603] Capacitor)
Added Component: Designator=R1(1608_[0603] Resistor)
Added Component: Designator=R2(1608_[0603] Resistor)
Added Component: Designator=R3(1608_[0603] Resistor)
Added Component: Designator=R4(1608_[0603] Resistor)
Added Component: Designator=R5(1608_[0603] Resistor)
Added Component: Designator=R6(1608_[0603] Resistor)
Added Component: Designator=R7(1608_[0603] Resistor)
Added Component: Designator=R8(1608_[0603] Resistor)
Added Component: Designator=R9(1608_[0603] Resistor)
Added Component: Designator=R10(1608_[0603] Resistor)
Added Component: Designator=R11(1608_[0603] Resistor)
Added Component: Designator=R12(1608_[0603] Resistor)
Added Component: Designator=R13(1608_[0603] Resistor)
Added Component: Designator=R14(1608_[0603] Resistor)
Added Component: Designator=R15(1608_[0603] Resistor)
Added Component: Designator=R16(1608_[0603] Resistor)
Added Component: Designator=R17(1608_[0603] Resistor)
Added Component: Designator=R18(1608_[0603] Resistor)
Added Component: Designator=R19(1608_[0603] Resistor)
Added Component: Designator=R20(1608_[0603] Resistor)
Added Component: Designator=R21(1608_[0603] Resistor)
Added Component: Designator=R22(1608_[0603] Resistor)
Added Component: Designator=R23(1608_[0603] Resistor)
Added Component: Designator=R24(1608_[0603] Resistor)
Added Component: Designator=R25(1608_[0603] Resistor)
Added Component: Designator=R26(1608_[0603] Resistor)
Added Component: Designator=R27(1608_[0603] Resistor)
Added Component: Designator=R28(1608_[0603] Resistor)
Added Component: Designator=R29(1608_[0603] Resistor)
Added Component: Designator=R30(1608_[0603] Resistor)
Added Component: Designator=R31(1608_[0603] Resistor)
Added Component: Designator=R32(1608_[0603] Resistor)
Added Component: Designator=R33(1608_[0603] Resistor)
Added Component: Designator=R34(1608_[0603] Resistor)
Added Component: Designator=R35(1608_[0603] Resistor)
Added Component: Designator=R36(1608_[0603] Resistor)
Added Component: Designator=R37(1608_[0603] Resistor)
Added Component: Designator=R38(1608_[0603] Resistor)
Added Component: Designator=R39(1608_[0603] Resistor)
Added Component: Designator=R40(1608_[0603] Resistor)
Added Component: Designator=R41(1608_[0603] Resistor)
Added Component: Designator=R42(1608_[0603] Resistor)
Added Component: Designator=R44(1608_[0603] Resistor)
Added Component: Designator=R45(1608_[0603] Resistor)
Added Component: Designator=R46(1608_[0603] Resistor)
Added Component: Designator=R47(1608_[0603] Resistor)
Added Component: Designator=R48(1608_[0603] Resistor)
Added Component: Designator=R49(1608_[0603] Resistor)
Added Component: Designator=R50(1608_[0603] Resistor)
Added Component: Designator=R51(1608_[0603] Resistor)
Added Component: Designator=R52(1608_[0603] Resistor)
Added Component: Designator=R53(1608_[0603] Resistor)
Added Component: Designator=R54(1608_[0603] Resistor)
Added Component: Designator=R55(1608_[0603] Resistor)
Added Component: Designator=R56(1608_[0603] Resistor)
Added Component: Designator=R57(1608_[0603] Resistor)
Added Component: Designator=R58(1608_[0603] Resistor)
Added Component: Designator=R59(1608_[0603] Resistor)
Added Component: Designator=R60(1608_[0603] Resistor)
Added Component: Designator=R61(1608_[0603] Resistor)
Added Component: Designator=R62(1608_[0603] Resistor)
Added Component: Designator=R63(1608_[0603] Resistor)
Added Component: Designator=U1(mcp6022)
Added Component: Designator=U2(cd74hc4067)
Added Component: Designator=U3(mcp6022)
Added Component: Designator=U4(SOT95P280X110-6N)
Added Component: Designator=U5(mcp6022)
Added Component: Designator=U6(mcp6022)
Added Component: Designator=U7(mcp6022)
Added Pin To Net: NetName=NetF1_2 Pin=C1-1
Added Pin To Net: NetName=GND Pin=C1-2
Added Pin To Net: NetName=GND Pin=C2-1
Added Pin To Net: NetName=+3.3 Pin=C2-2
Added Pin To Net: NetName=GND Pin=C3-1
Added Pin To Net: NetName=+3.3 Pin=C3-2
Added Pin To Net: NetName=GND Pin=C4-1
Added Pin To Net: NetName=+3.3 Pin=C4-2
Added Pin To Net: NetName=GND Pin=C5-1
Added Pin To Net: NetName=NetQ1_1 Pin=C5-2
Added Pin To Net: NetName=NetQ1_1 Pin=C30-1
Added Pin To Net: NetName=NetF1_2 Pin=C30-2
Added Pin To Net: NetName=NetQ2_1 Pin=F1-1
Added Pin To Net: NetName=+24 Pin=F1-2
Added Pin To Net: NetName=NetQ2_1 Pin=P9-11
Added Pin To Net: NetName=NetF1_2 Pin=R1-1
Added Pin To Net: NetName=NetQ3_1 Pin=R1-2
Added Pin To Net: NetName=NetQ1_1 Pin=R2-1
Added Pin To Net: NetName=NetU1_23 Pin=R2-2
Added Pin To Net: NetName=NetR39_1 Pin=R3-1
Added Pin To Net: NetName=NetQ4_1 Pin=R3-2
Added Pin To Net: NetName=NetR38_2 Pin=R4-1
Added Pin To Net: NetName=NetQ5_1 Pin=R4-2
Added Pin To Net: NetName=NetQ6_1 Pin=R5-1
Added Pin To Net: NetName=NetQ7_1 Pin=R5-2
Added Pin To Net: NetName=NetQ8_1 Pin=R6-1
Added Pin To Net: NetName=NetR11_2 Pin=R6-2
Added Pin To Net: NetName=NetP9_1 Pin=R7-1
Added Pin To Net: NetName=NetQ4_1 Pin=R7-2
Added Pin To Net: NetName=NetP9_3 Pin=R8-1
Added Pin To Net: NetName=NetQ5_1 Pin=R8-2
Added Pin To Net: NetName=NetP9_5 Pin=R9-1
Added Pin To Net: NetName=NetQ7_1 Pin=R9-2
Added Pin To Net: NetName=NetP9_7 Pin=R10-1
Added Pin To Net: NetName=NetR11_2 Pin=R10-2
Added Pin To Net: NetName=GND Pin=R11-1
Added Pin To Net: NetName=NetP9_1 Pin=R11-2
Added Pin To Net: NetName=GND Pin=R12-1
Added Pin To Net: NetName=NetP9_3 Pin=R12-2
Added Pin To Net: NetName=GND Pin=R13-1
Added Pin To Net: NetName=NetP9_5 Pin=R13-2
Added Pin To Net: NetName=GND Pin=R14-1
Added Pin To Net: NetName=NetP9_7 Pin=R14-2
Added Pin To Net: NetName=NetP9_2 Pin=R15-1
Added Pin To Net: NetName=NetR15_2 Pin=R15-2
Added Pin To Net: NetName=NetP9_4 Pin=R16-1
Added Pin To Net: NetName=NetR12_2 Pin=R16-2
Added Pin To Net: NetName=NetP9_6 Pin=R17-1
Added Pin To Net: NetName=NetR13_2 Pin=R17-2
Added Pin To Net: NetName=NetP9_8 Pin=R18-1
Added Pin To Net: NetName=NetR14_2 Pin=R18-2
Added Pin To Net: NetName=NetP9_2 Pin=R19-1
Added Pin To Net: NetName=GND Pin=R19-2
Added Pin To Net: NetName=NetP9_4 Pin=R20-1
Added Pin To Net: NetName=GND Pin=R20-2
Added Pin To Net: NetName=NetP9_6 Pin=R21-1
Added Pin To Net: NetName=GND Pin=R21-2
Added Pin To Net: NetName=NetP9_8 Pin=R22-1
Added Pin To Net: NetName=GND Pin=R22-2
Added Pin To Net: NetName=NetU1_23 Pin=R23-1
Added Pin To Net: NetName=NetR15_2 Pin=R23-2
Added Pin To Net: NetName=NetU1_23 Pin=R24-1
Added Pin To Net: NetName=NetR12_2 Pin=R24-2
Added Pin To Net: NetName=NetU1_23 Pin=R25-1
Added Pin To Net: NetName=NetR13_2 Pin=R25-2
Added Pin To Net: NetName=NetU1_23 Pin=R26-1
Added Pin To Net: NetName=NetR14_2 Pin=R26-2
Added Pin To Net: NetName=NetR37_1 Pin=R27-1
Added Pin To Net: NetName=NetR27_2 Pin=R27-2
Added Pin To Net: NetName=NetR36_2 Pin=R28-1
Added Pin To Net: NetName=NetR28_2 Pin=R28-2
Added Pin To Net: NetName=NetR19_1 Pin=R29-1
Added Pin To Net: NetName=NetR20_2 Pin=R29-2
Added Pin To Net: NetName=NetR24_1 Pin=R30-1
Added Pin To Net: NetName=NetR25_2 Pin=R30-2
Added Pin To Net: NetName=NetP9_9 Pin=R31-1
Added Pin To Net: NetName=NetR27_2 Pin=R31-2
Added Pin To Net: NetName=NetP10_1 Pin=R32-1
Added Pin To Net: NetName=NetR28_2 Pin=R32-2
Added Pin To Net: NetName=NetP10_3 Pin=R33-1
Added Pin To Net: NetName=NetR20_2 Pin=R33-2
Added Pin To Net: NetName=NetP10_5 Pin=R34-1
Added Pin To Net: NetName=NetR25_2 Pin=R34-2
Added Pin To Net: NetName=GND Pin=R35-1
Added Pin To Net: NetName=NetP9_9 Pin=R35-2
Added Pin To Net: NetName=GND Pin=R36-1
Added Pin To Net: NetName=NetP10_1 Pin=R36-2
Added Pin To Net: NetName=GND Pin=R37-1
Added Pin To Net: NetName=NetP10_3 Pin=R37-2
Added Pin To Net: NetName=GND Pin=R38-1
Added Pin To Net: NetName=NetP10_5 Pin=R38-2
Added Pin To Net: NetName=NetP9_10 Pin=R39-1
Added Pin To Net: NetName=NetR26_2 Pin=R39-2
Added Pin To Net: NetName=NetP10_2 Pin=R40-1
Added Pin To Net: NetName=NetR40_2 Pin=R40-2
Added Pin To Net: NetName=NetP10_4 Pin=R41-1
Added Pin To Net: NetName=NetR31_1 Pin=R41-2
Added Pin To Net: NetName=NetP10_6 Pin=R42-1
Added Pin To Net: NetName=NetR42_2 Pin=R42-2
Added Pin To Net: NetName=NetP9_10 Pin=R43-1
Added Pin To Net: NetName=GND Pin=R43-2
Added Pin To Net: NetName=NetP10_2 Pin=R44-1
Added Pin To Net: NetName=GND Pin=R44-2
Added Pin To Net: NetName=NetP10_4 Pin=R45-1
Added Pin To Net: NetName=GND Pin=R45-2
Added Pin To Net: NetName=NetP10_6 Pin=R46-1
Added Pin To Net: NetName=GND Pin=R46-2
Added Pin To Net: NetName=NetU1_23 Pin=R47-1
Added Pin To Net: NetName=NetR26_2 Pin=R47-2
Added Pin To Net: NetName=NetU1_23 Pin=R48-1
Added Pin To Net: NetName=NetR40_2 Pin=R48-2
Added Pin To Net: NetName=NetU1_23 Pin=R49-1
Added Pin To Net: NetName=NetR31_1 Pin=R49-2
Added Pin To Net: NetName=NetU1_23 Pin=R50-1
Added Pin To Net: NetName=NetR42_2 Pin=R50-2
Added Pin To Net: NetName=NetU1_22 Pin=R51-1
Added Pin To Net: NetName=NetR32_2 Pin=R51-2
Added Pin To Net: NetName=NetU1_21 Pin=R52-1
Added Pin To Net: NetName=NetR33_1 Pin=R52-2
Added Pin To Net: NetName=NetP10_7 Pin=R53-1
Added Pin To Net: NetName=NetR32_2 Pin=R53-2
Added Pin To Net: NetName=NetP10_9 Pin=R54-1
Added Pin To Net: NetName=NetR33_1 Pin=R54-2
Added Pin To Net: NetName=GND Pin=R55-1
Added Pin To Net: NetName=NetP10_7 Pin=R55-2
Added Pin To Net: NetName=GND Pin=R56-1
Added Pin To Net: NetName=NetP10_9 Pin=R56-2
Added Pin To Net: NetName=NetP10_8 Pin=R57-1
Added Pin To Net: NetName=NetR34_2 Pin=R57-2
Added Pin To Net: NetName=NetP10_10 Pin=R58-1
Added Pin To Net: NetName=NetR35_1 Pin=R58-2
Added Pin To Net: NetName=NetP10_8 Pin=R59-1
Added Pin To Net: NetName=GND Pin=R59-2
Added Pin To Net: NetName=NetP10_10 Pin=R60-1
Added Pin To Net: NetName=GND Pin=R60-2
Added Pin To Net: NetName=NetU1_23 Pin=R61-1
Added Pin To Net: NetName=NetR34_2 Pin=R61-2
Added Pin To Net: NetName=NetU1_23 Pin=R62-1
Added Pin To Net: NetName=NetR35_1 Pin=R62-2
Added Pin To Net: NetName=+3.3 Pin=R63-1
Added Pin To Net: NetName=NetDS1_1 Pin=R63-2
Added Pin To Net: NetName=NetR39_1 Pin=U1-1
Added Pin To Net: NetName=NetR15_2 Pin=U1-2
Added Pin To Net: NetName=NetQ4_1 Pin=U1-3
Added Pin To Net: NetName=GND Pin=U1-4
Added Pin To Net: NetName=NetQ5_1 Pin=U1-5
Added Pin To Net: NetName=NetR12_2 Pin=U1-6
Added Pin To Net: NetName=NetR38_2 Pin=U1-7
Added Pin To Net: NetName=+3.3 Pin=U1-8
Added Pin To Net: NetName=NetQ3_1 Pin=U2-1
Added Pin To Net: NetName=NetR24_1 Pin=U2-2
Added Pin To Net: NetName=NetR19_1 Pin=U2-3
Added Pin To Net: NetName=NetR36_2 Pin=U2-4
Added Pin To Net: NetName=NetR37_1 Pin=U2-5
Added Pin To Net: NetName=NetQ8_1 Pin=U2-6
Added Pin To Net: NetName=NetQ6_1 Pin=U2-7
Added Pin To Net: NetName=NetR38_2 Pin=U2-8
Added Pin To Net: NetName=NetR39_1 Pin=U2-9
Added Pin To Net: NetName=NetP2_6 Pin=U2-10
Added Pin To Net: NetName=NetP2_5 Pin=U2-11
Added Pin To Net: NetName=GND Pin=U2-12
Added Pin To Net: NetName=NetR41_1 Pin=U2-13
Added Pin To Net: NetName=NetP2_4 Pin=U2-14
Added Pin To Net: NetName=GND Pin=U2-15
Added Pin To Net: NetName=NetU1_21 Pin=U2-22
Added Pin To Net: NetName=NetU1_22 Pin=U2-23
Added Pin To Net: NetName=+3.3 Pin=U2-24
Added Pin To Net: NetName=NetQ6_1 Pin=U3-1
Added Pin To Net: NetName=NetR13_2 Pin=U3-2
Added Pin To Net: NetName=NetQ7_1 Pin=U3-3
Added Pin To Net: NetName=GND Pin=U3-4
Added Pin To Net: NetName=NetR11_2 Pin=U3-5
Added Pin To Net: NetName=NetR14_2 Pin=U3-6
Added Pin To Net: NetName=NetQ8_1 Pin=U3-7
Added Pin To Net: NetName=+3.3 Pin=U3-8
Added Pin To Net: NetName=NetF1_2 Pin=U4-1
Added Pin To Net: NetName=GND Pin=U4-2
Added Pin To Net: NetName=NetP2_1 Pin=U4-3
Added Pin To Net: NetName=NetP2_2 Pin=U4-4
Added Pin To Net: NetName=+3.3 Pin=U4-5
Added Pin To Net: NetName=NetQ1_1 Pin=U4-6
Added Pin To Net: NetName=NetR37_1 Pin=U5-1
Added Pin To Net: NetName=NetR26_2 Pin=U5-2
Added Pin To Net: NetName=NetR27_2 Pin=U5-3
Added Pin To Net: NetName=GND Pin=U5-4
Added Pin To Net: NetName=NetR28_2 Pin=U5-5
Added Pin To Net: NetName=NetR40_2 Pin=U5-6
Added Pin To Net: NetName=NetR36_2 Pin=U5-7
Added Pin To Net: NetName=+3.3 Pin=U5-8
Added Pin To Net: NetName=NetR19_1 Pin=U6-1
Added Pin To Net: NetName=NetR31_1 Pin=U6-2
Added Pin To Net: NetName=NetR20_2 Pin=U6-3
Added Pin To Net: NetName=GND Pin=U6-4
Added Pin To Net: NetName=NetR25_2 Pin=U6-5
Added Pin To Net: NetName=NetR42_2 Pin=U6-6
Added Pin To Net: NetName=NetR24_1 Pin=U6-7
Added Pin To Net: NetName=+3.3 Pin=U6-8
Added Pin To Net: NetName=NetU1_22 Pin=U7-1
Added Pin To Net: NetName=NetR34_2 Pin=U7-2
Added Pin To Net: NetName=NetR32_2 Pin=U7-3
Added Pin To Net: NetName=GND Pin=U7-4
Added Pin To Net: NetName=NetR33_1 Pin=U7-5
Added Pin To Net: NetName=NetR35_1 Pin=U7-6
Added Pin To Net: NetName=NetU1_21 Pin=U7-7
Added Pin To Net: NetName=+3.3 Pin=U7-8
Change Net Name : Old Net Name=NetF1_2 New Net Name=NetC1_1
Change Net Name : Old Net Name=NetQ1_1 New Net Name=NetC5_2
Change Net Name : Old Net Name=NetQ2_1 New Net Name=NetF1_1
Change Net Name : Old Net Name=NetQ3_1 New Net Name=NetR1_2
Change Net Name : Old Net Name=NetQ4_1 New Net Name=NetR3_2
Change Net Name : Old Net Name=NetQ5_1 New Net Name=NetR4_2
Change Net Name : Old Net Name=NetQ6_1 New Net Name=NetR5_1
Change Net Name : Old Net Name=NetQ7_1 New Net Name=NetR5_2
Change Net Name : Old Net Name=NetQ8_1 New Net Name=NetR6_1
Change Net Name : Old Net Name=NetR11_2 New Net Name=NetR6_2
Change Net Name : Old Net Name=NetR12_2 New Net Name=NetR16_2
Change Net Name : Old Net Name=NetR13_2 New Net Name=NetR17_2
Change Net Name : Old Net Name=NetR14_2 New Net Name=NetR18_2
Change Net Name : Old Net Name=NetR19_1 New Net Name=NetR29_1
Change Net Name : Old Net Name=NetR20_2 New Net Name=NetR29_2
Change Net Name : Old Net Name=NetR24_1 New Net Name=NetR30_1
Change Net Name : Old Net Name=NetR25_2 New Net Name=NetR30_2
Change Net Name : Old Net Name=NetR26_2 New Net Name=NetR39_2
Change Net Name : Old Net Name=NetR31_1 New Net Name=NetR41_2
Change Net Name : Old Net Name=NetR32_2 New Net Name=NetR51_2
Change Net Name : Old Net Name=NetR33_1 New Net Name=NetR52_2
Change Net Name : Old Net Name=NetR34_2 New Net Name=NetR57_2
Change Net Name : Old Net Name=NetR35_1 New Net Name=NetR58_2
Change Net Name : Old Net Name=NetR36_2 New Net Name=NetR28_1
Change Net Name : Old Net Name=NetR37_1 New Net Name=NetR27_1
Change Net Name : Old Net Name=NetR38_2 New Net Name=NetR4_1
Change Net Name : Old Net Name=NetR39_1 New Net Name=NetR3_1
Change Net Name : Old Net Name=NetR41_1 New Net Name=NetU2_13
Change Net Name : Old Net Name=NetU1_21 New Net Name=NetR52_1
Change Net Name : Old Net Name=NetU1_22 New Net Name=NetR51_1
Change Net Name : Old Net Name=NetU1_23 New Net Name=+1.5
Change Class Name : Old Net Name=1 New Net Name=8Ain
Added Member To Class: ClassName=8Ain Member=Component C1 C0805
Added Member To Class: ClassName=8Ain Member=Component C2 C0805
Added Member To Class: ClassName=8Ain Member=Component C3 C0805
Added Member To Class: ClassName=8Ain Member=Component C4 C0805
Added Member To Class: ClassName=8Ain Member=Component C5 C0805
Added Member To Class: ClassName=8Ain Member=Component C30 C0805
Added Member To Class: ClassName=8Ain Member=Component R1 ERA6Y
Added Member To Class: ClassName=8Ain Member=Component R2 ERA6Y
Added Member To Class: ClassName=8Ain Member=Component R3 ERA6Y
Added Member To Class: ClassName=8Ain Member=Component R4 ERA6Y
Added Member To Class: ClassName=8Ain Member=Component R5 ERA6Y
Added Member To Class: ClassName=8Ain Member=Component R6 ERA6Y
Added Member To Class: ClassName=8Ain Member=Component R7 ERA6Y
Added Member To Class: ClassName=8Ain Member=Component R8 ERA6Y
Added Member To Class: ClassName=8Ain Member=Component R9 ERA6Y
Added Member To Class: ClassName=8Ain Member=Component R10 ERA6Y
Added Member To Class: ClassName=8Ain Member=Component R11 ERA6Y
Added Member To Class: ClassName=8Ain Member=Component R12 ERA6Y
Added Member To Class: ClassName=8Ain Member=Component R13 ERA6Y
Added Member To Class: ClassName=8Ain Member=Component R14 ERA6Y
Added Member To Class: ClassName=8Ain Member=Component R15 ERA6Y
Added Member To Class: ClassName=8Ain Member=Component R16 ERA6Y
Added Member To Class: ClassName=8Ain Member=Component R17 ERA6Y
Added Member To Class: ClassName=8Ain Member=Component R18 ERA6Y
Added Member To Class: ClassName=8Ain Member=Component R19 ERA6Y
Added Member To Class: ClassName=8Ain Member=Component R20 ERA6Y
Added Member To Class: ClassName=8Ain Member=Component R21 ERA6Y
Added Member To Class: ClassName=8Ain Member=Component R22 ERA6Y
Added Member To Class: ClassName=8Ain Member=Component R23 ERA6Y
Added Member To Class: ClassName=8Ain Member=Component R24 ERA6Y
Added Member To Class: ClassName=8Ain Member=Component R25 ERA6Y
Added Member To Class: ClassName=8Ain Member=Component R26 ERA6Y
Added Member To Class: ClassName=8Ain Member=Component R27 ERA6Y
Added Member To Class: ClassName=8Ain Member=Component R28 ERA6Y
Added Member To Class: ClassName=8Ain Member=Component R29 ERA6Y
Added Member To Class: ClassName=8Ain Member=Component R30 ERA6Y
Added Member To Class: ClassName=8Ain Member=Component R31 ERA6Y
Added Member To Class: ClassName=8Ain Member=Component R32 ERA6Y
Added Member To Class: ClassName=8Ain Member=Component R33 ERA6Y
Added Member To Class: ClassName=8Ain Member=Component R34 ERA6Y
Added Member To Class: ClassName=8Ain Member=Component R35 ERA6Y
Added Member To Class: ClassName=8Ain Member=Component R36 ERA6Y
Added Member To Class: ClassName=8Ain Member=Component R37 ERA6Y
Added Member To Class: ClassName=8Ain Member=Component R38 ERA6Y
Added Member To Class: ClassName=8Ain Member=Component R39 ERA6Y
Added Member To Class: ClassName=8Ain Member=Component R40 ERA6Y
Added Member To Class: ClassName=8Ain Member=Component R41 ERA6Y
Added Member To Class: ClassName=8Ain Member=Component R42 ERA6Y
Added Member To Class: ClassName=8Ain Member=Component R44 ERA6Y
Added Member To Class: ClassName=8Ain Member=Component R45 ERA6Y
Added Member To Class: ClassName=8Ain Member=Component R46 ERA6Y
Added Member To Class: ClassName=8Ain Member=Component R47 ERA6Y
Added Member To Class: ClassName=8Ain Member=Component R48 ERA6Y
Added Member To Class: ClassName=8Ain Member=Component R49 ERA6Y
Added Member To Class: ClassName=8Ain Member=Component R50 ERA6Y
Added Member To Class: ClassName=8Ain Member=Component R51 ERA6Y
Added Member To Class: ClassName=8Ain Member=Component R52 ERA6Y
Added Member To Class: ClassName=8Ain Member=Component R53 ERA6Y
Added Member To Class: ClassName=8Ain Member=Component R54 ERA6Y
Added Member To Class: ClassName=8Ain Member=Component R55 ERA6Y
Added Member To Class: ClassName=8Ain Member=Component R56 ERA6Y
Added Member To Class: ClassName=8Ain Member=Component R57 ERA6Y
Added Member To Class: ClassName=8Ain Member=Component R58 ERA6Y
Added Member To Class: ClassName=8Ain Member=Component R59 ERA6Y
Added Member To Class: ClassName=8Ain Member=Component R60 ERA6Y
Added Member To Class: ClassName=8Ain Member=Component R61 ERA6Y
Added Member To Class: ClassName=8Ain Member=Component R62 ERA6Y
Added Member To Class: ClassName=8Ain Member=Component R63 ERA6Y
Added Member To Class: ClassName=8Ain Member=Component U1 MCP6022
Added Member To Class: ClassName=8Ain Member=Component U2 cd74hc4067 multiplexer
Added Member To Class: ClassName=8Ain Member=Component U3 MCP6022
Added Member To Class: ClassName=8Ain Member=Component U4 ads1110
Added Member To Class: ClassName=8Ain Member=Component U5 MCP6022
Added Member To Class: ClassName=8Ain Member=Component U6 MCP6022
Added Member To Class: ClassName=8Ain Member=Component U7 MCP6022
Added Room: Name=8Ain
