Added Component: Designator=R3(1608_[0603] Resistor)
Added Pin To Net: NetName=+3.3 Pin=R3-1
Added Pin To Net: NetName=NetDS1_1 Pin=R3-2
Added Net: Name=NetDS1_1
Added Member To Class: ClassName=8Ain Member=Component R3 ERA6Y
