Removed Pin From Net: NetName=NetR30_1 Pin=U2-2
Removed Pin From Net: NetName=NetR29_1 Pin=U2-3
Removed Pin From Net: NetName=NetR28_1 Pin=U2-4
Removed Pin From Net: NetName=NetR27_1 Pin=U2-5
Removed Pin From Net: NetName=NetR6_1 Pin=U2-6
Removed Pin From Net: NetName=NetR5_1 Pin=U2-7
Removed Pin From Net: NetName=NetR4_1 Pin=U2-8
Removed Pin From Net: NetName=NetR3_1 Pin=U2-9
Removed Pin From Net: NetName=NetR52_1 Pin=U2-22
Removed Pin From Net: NetName=NetR51_1 Pin=U2-23
Added Pin To Net: NetName=NetR3_1 Pin=U2-2
Added Pin To Net: NetName=NetR4_1 Pin=U2-3
Added Pin To Net: NetName=NetR5_1 Pin=U2-4
Added Pin To Net: NetName=NetR6_1 Pin=U2-5
Added Pin To Net: NetName=NetR27_1 Pin=U2-6
Added Pin To Net: NetName=NetR28_1 Pin=U2-7
Added Pin To Net: NetName=NetR30_1 Pin=U2-16
Added Pin To Net: NetName=NetR29_1 Pin=U2-17
Added Pin To Net: NetName=NetR52_1 Pin=U2-18
Added Pin To Net: NetName=NetR51_1 Pin=U2-19
Added Room: Name=8Ain
